ct
[ 0  0.5  0. ]
[ 0.29389263  0.4045085   0.        ]
[ 0.47552826  0.1545085   0.        ]
[ 0.47552826 -0.1545085   0.        ]
[ 0.29389263 -0.4045085   0.        ]
[ 0. -0.5  0. ]
[ -0.30610737 -0.4045085   0.        ]
[ -0.52447174 -0.1545085   0.        ]
[ -0.52447174  0.1545085   0.        ]
[ -0.30610737  0.4045085   0.        ]

at
0.0 0.5
0.03139525976465669 0.4990133642141358
0.1243449435824274 0.48429158056431554
0.26791339748949833 0.42216396275100754
0.42216396275100754 0.26791339748949833
0.5 3.061616997868383e-17
0.3852566213878946 -0.3187119948743448
0.03139525976465657 -0.4990133642141358
-0.3852566213878947 -0.3187119948743448
-0.4648882429441256 0.18406227634233915

cr
[-0.5  0.   0. ]
[-0.47552826 -0.1545085   0.        ]
[-0.4045085  -0.29389263  0.        ]
[-0.29389263 -0.4045085   0.        ]
[-0.1545085  -0.47552826  0.        ]
[-3.061617e-17 -5.000000e-01  0.000000e+00]
[ 0.1545085  -0.47552826  0.        ]
[ 0.29389263 -0.4045085   0.        ]
[ 0.4045085  -0.29389263  0.        ]
[ 0.47552826 -0.1545085   0.        ]

ar
[-0.5  0.   0. ]
[-0.49901336  0.03139526  0.        ]
[-0.48429158  0.12434494  0.        ]
[-0.42216396  0.2679134   0.        ]
[-0.2679134   0.42216396  0.        ]
[-3.061617e-17  5.000000e-01  0.000000e+00]
[0.31871199 0.38525662 0.        ]
[0.49901336 0.03139526 0.        ]
[ 0.31871199 -0.38525662  0.        ]
[-0.18406228 -0.46488824  0.        ]


